{
  "project_info": {
    "project_number": "145209396611",
    "firebase_url": "https://inqmobile-8869.firebaseio.com",
    "project_id": "inqmobile-8869",
    "storage_bucket": "inqmobile-8869.appspot.com"
  },
  "client": [
    {
      "client_info": {
        "mobilesdk_app_id": "1:145209396611:android:50e613f659e8f9e7",
        "android_client_info": {
          "package_name": "com.knx.inquirer"
        }
      },
      "oauth_client": [
        {
          "client_id": "145209396611-galon5pqn5dfkl16p6qv7spcuchktpac.apps.googleusercontent.com",
          "client_type": 1,
          "android_info": {
            "package_name": "com.knx.inquirer",
            "certificate_hash": "e9a27b6e59b8c6f884e2b4d85882ceb0eb944bc9"
          }
        },
        {
          "client_id": "145209396611-2frboghl2abeotiair6do4qhf0nhlf0e.apps.googleusercontent.com",
          "client_type": 3
        }
      ],
      "api_key": [
        {
          "current_key": "AIzaSyBuFRowUFjGb08GGdf50i-27wGYPJkCSIY"
        }
      ],
      "services": {
        "analytics_service": {
          "status": 1
        },
        "appinvite_service": {
          "status": 2,
          "other_platform_oauth_client": [
            {
              "client_id": "145209396611-2frboghl2abeotiair6do4qhf0nhlf0e.apps.googleusercontent.com",
              "client_type": 3
            }
          ]
        },
        "ads_service": {
          "status": 2
        }
      }
    }
  ],
  "configuration_version": "1"
}